{
    "_links": {
        "self": {
            "href": "http:\/\/default\/admin\/structure\/weekly_usage\/75?_format=hal_json"
        },
        "type": {
            "href": "http:\/\/drupal.org\/rest\/type\/weekly_usage\/weekly_usage"
        },
        "http:\/\/drupal.org\/rest\/relation\/weekly_usage\/weekly_usage\/module": [
            {
                "href": "http:\/\/default\/admin\/structure\/module\/1?_format=hal_json",
                "lang": "und"
            }
        ]
    },
    "id": [
        {
            "value": 75
        }
    ],
    "uuid": [
        {
            "value": "547b8f30-4e27-4480-ba26-b04a5247f581"
        }
    ],
    "install_count": [
        {
            "value": 437
        }
    ],
    "_embedded": {
        "http:\/\/drupal.org\/rest\/relation\/weekly_usage\/weekly_usage\/module": [
            {
                "_links": {
                    "self": {
                        "href": "http:\/\/default\/admin\/structure\/module\/1?_format=hal_json"
                    },
                    "type": {
                        "href": "http:\/\/drupal.org\/rest\/type\/module\/module"
                    }
                },
                "uuid": [
                    {
                        "value": "3c41e9d9-9ee6-415d-82ed-184692f22970"
                    }
                ],
                "lang": "und"
            }
        ]
    }
}