{
    "_links": {
        "self": {
            "href": "http:\/\/default\/admin\/structure\/weekly_usage\/101?_format=hal_json"
        },
        "type": {
            "href": "http:\/\/drupal.org\/rest\/type\/weekly_usage\/weekly_usage"
        },
        "http:\/\/drupal.org\/rest\/relation\/weekly_usage\/weekly_usage\/module": [
            {
                "href": "http:\/\/default\/admin\/structure\/module\/1?_format=hal_json",
                "lang": "und"
            }
        ]
    },
    "id": [
        {
            "value": 101
        }
    ],
    "uuid": [
        {
            "value": "f427bd19-ba1f-4364-b3e5-0eb22c3dae1a"
        }
    ],
    "install_count": [
        {
            "value": 83
        }
    ],
    "_embedded": {
        "http:\/\/drupal.org\/rest\/relation\/weekly_usage\/weekly_usage\/module": [
            {
                "_links": {
                    "self": {
                        "href": "http:\/\/default\/admin\/structure\/module\/1?_format=hal_json"
                    },
                    "type": {
                        "href": "http:\/\/drupal.org\/rest\/type\/module\/module"
                    }
                },
                "uuid": [
                    {
                        "value": "3c41e9d9-9ee6-415d-82ed-184692f22970"
                    }
                ],
                "lang": "und"
            }
        ]
    }
}